\relax 
\@writefile{toc}{\contentsline {section}{\numberline {1}Attack System}{1}\protected@file@percent }
\@writefile{toc}{\contentsline {subsection}{\numberline {1.1}First Past Algorithms}{1}\protected@file@percent }
